^C:\USERS\ADMINISTRATOR\DESKTOP\TEST09\TEST09\DEBUG\STDAFX.OBJ|C:\USERS\ADMINISTRATOR\DESKTOP\TEST09\TEST09\DEBUG\TEST09.OBJ
C:\USERS\ADMINISTRATOR\DESKTOP\TEST09\DEBUG\TEST09.ILK
C:\USERS\ADMINISTRATOR\DESKTOP\TEST09\DEBUG\TEST09.EXE
C:\USERS\ADMINISTRATOR\DESKTOP\TEST09\DEBUG\TEST09.PDB
