^C:\USERS\ADMINISTRATOR\DESKTOP\TEST03\TEST03\STDAFX.CPP
/c /ZI /nologo /W3 /WX- /Od /Oy- /D WIN32 /D _DEBUG /D _CONSOLE /D _LIB /D _UNICODE /D UNICODE /Gm /EHsc /RTC1 /MDd /GS /fp:precise /Zc:wchar_t /Zc:forScope /Yc"stdafx.h" /Fp"DEBUG\TEST03.PCH" /Fo"DEBUG\\" /Fd"DEBUG\VC120.PDB" /Gd /TP /analyze- C:\USERS\ADMINISTRATOR\DESKTOP\TEST03\TEST03\STDAFX.CPP
^C:\USERS\ADMINISTRATOR\DESKTOP\TEST03\TEST03\TEST03.CPP
/c /ZI /nologo /W3 /WX- /Od /Oy- /D WIN32 /D _DEBUG /D _CONSOLE /D _LIB /D _UNICODE /D UNICODE /Gm /EHsc /RTC1 /MDd /GS /fp:precise /Zc:wchar_t /Zc:forScope /Yu"stdafx.h" /Fp"DEBUG\TEST03.PCH" /Fo"DEBUG\\" /Fd"DEBUG\VC120.PDB" /Gd /TP /analyze- C:\USERS\ADMINISTRATOR\DESKTOP\TEST03\TEST03\TEST03.CPP
