^C:\USERS\ADMINISTRATOR\DESKTOP\TEST01\TEST01\STDAFX.CPP
C:\USERS\ADMINISTRATOR\DESKTOP\TEST01\TEST01\DEBUG\TEST01.PCH
C:\USERS\ADMINISTRATOR\DESKTOP\TEST01\TEST01\DEBUG\VC120.PDB
C:\USERS\ADMINISTRATOR\DESKTOP\TEST01\TEST01\DEBUG\VC120.IDB
C:\USERS\ADMINISTRATOR\DESKTOP\TEST01\TEST01\DEBUG\STDAFX.OBJ
^C:\USERS\ADMINISTRATOR\DESKTOP\TEST01\TEST01\TEST01.CPP
C:\USERS\ADMINISTRATOR\DESKTOP\TEST01\TEST01\DEBUG\VC120.PDB
C:\USERS\ADMINISTRATOR\DESKTOP\TEST01\TEST01\DEBUG\VC120.IDB
C:\USERS\ADMINISTRATOR\DESKTOP\TEST01\TEST01\DEBUG\TEST01.OBJ
